Poster figures
…
dat_models2 |>
    dplyr::select(uniq_id, strains_fullname, dose) |>
    dplyr::distinct() |>
    dplyr::count(strains_fullname, dose)

# A tibble: 36 × 3
   strains_fullname      dose      n
   <chr>                 <fct> <int>
 1 H3N2-Fujian-2002      SD      236
 2 H3N2-Fujian-2002      HD       40
 3 H3N2-Hong Kong-1968   SD      236
 4 H3N2-Hong Kong-1968   HD       40
 5 H3N2-Hong Kong-2014   SD      234
 6 H3N2-Hong Kong-2014   HD       39
 7 H3N2-Mississippi-1985 SD      236
 8 H3N2-Mississippi-1985 HD       40
 9 H3N2-Nanchang-1995    SD      236
10 H3N2-Nanchang-1995    HD       40
# … with 26 more rows
…
